<?xml version="1.0" encoding="UTF-8"?>
<session version="1.0">
<refactoring comment="Delete 8 resources" deleteContents="false" description="Delete 8 resources" element1="/Student_Cuda_Image_Demo/src/cpp/core/01_Rippling" element2="/Student_Cuda_Image_Demo/src/cpp/core/02_Mandelbrot_Julia" element3="/Student_Cuda_Image_Demo/src/cpp/core/03_RayTracing" element4="/Student_Cuda_Image_Demo/src/cpp/core/04_HeatTransfert" element5="/Student_Cuda_Image_Demo/src/cpp/core/05_Convolution" element6="/Student_Cuda_Image_Demo/src/cpp/core/mainAnimable.cpp" element7="/Student_Cuda_Image_Demo/src/cpp/core/mainBarivox.cpp" element8="/Student_Cuda_Image_Demo/src/cpp/core/mainBruteForce.cpp" flags="7" id="org.eclipse.ltk.core.refactoring.delete.resources" resources="8" stamp="1490355210503"/>
</session>