17:11:08 **** Build of configuration GCC_ARM_parallel for project BilatTools_CPP ****
cbicc gcc arm jall 

--------------------------------------------------------
Cross Compilation 		       
--------------------------------------------------------

PLATFORME = jetson
API       = /opt/arm/jetson

--------------------------------------------------------
[Runtime] : gcc arm
--------------------------------------------------------



[cuda]        : /opt/api/ext/cuda

[jni]         : /opt/api/ext/jni/java-8-oracle

[X11]         : /usr/include/X11
[X11]         : 

[MKL]         : /opt/intel/mkl

[boost]       : /opt/api/ext/boost

[opencv]      : /opt/api/ext/opencv
[opencv]      : RPATH_LINK : /opt/api/ext/cuda/cuda-6.5/lib/gcc_arm:/opt/arm/L4T_1404_240/usr_lib

[cpptest]     : /opt/api/ext/cpptest

[gphoto2]     : /opt/api/ext/gphoto2

[urg]         : /opt/api/ext/urg

[wic]         : /opt/api/ext/wic 


[pleora]      : /opt/api/ext/pleora

[gps]         : /opt/api/ext/gps

[glm]      : /opt/api/ext/GLM

[Runtime] : BILAT_INFOGRAPHIE           /opt/api/cbi/infographie

     BILAT_TOOLS_JST_HOME             = /opt/api/cbi/infographie/tools
     BILAT_OPENGL_HOME                = /opt/api/cbi/infographie/opengl
     BILAT_FENETRAGE_HOME             = /opt/api/cbi/infographie/fenetrage
     BILAT_IMAGE_HOME                 = /opt/api/cbi/infographie/image
     BILAT_SCENE_3D_HOME              = /opt/api/cbi/infographie/scene3d

[Runtime] : BILAT_TOOLS                 /opt/api/cbi/tools

     BILAT_TOOLS_CPP_HOME             = /opt/api/cbi/tools/bilat_tools_cpp
     BILAT_TOOLS_OMP_HOME             = /opt/api/cbi/tools/bilat_tools_omp
     BILAT_TOOLS_CUDA_HOME            = /opt/api/cbi/tools/bilat_tools_cuda
     BILAT_TOOLS_MKL_HOME             = /opt/api/cbi/tools/bilat_tools_mkl
     BILAT_TOOLS_OPENCV_HOME          = /opt/api/cbi/tools/bilat_tools_opencv
     BILAT_TOOLS_V4L_HOME             = /opt/api/cbi/tools/bilat_tools_v4l
     BILAT_TOOLS_CUDA_IMAGE_HOME      = /opt/api/cbi/tools/bilat_tools_cuda_image
     BILAT_TOOLS_CUDA_IMAGE_CV_HOME   = /opt/api/cbi/tools/bilat_tools_cuda_image_cv
     BILAT_TOOLS_IMAGE_HOME           = /opt/api/cbi/tools/bilat_tools_image
     BILAT_TOOLS_IMAGE_CVHOME         = /opt/api/cbi/tools/bilat_tools_image_cv

[Runtime] : BILAT_CAPTEUR               /opt/api/cbi/capteur

     BILAT_GPHOTO2_HOME               = /opt/api/cbi/capteur/bilat_gphoto2
     BILAT_LASER_HOME                 = /opt/api/cbi/capteur/bilat_laser
     BILAT_LIDAR_HOME                 = /opt/api/cbi/capteur/bilat_lidar
     BILAT_TAU2_HOME                  = /opt/api/cbi/capteur/bilat_tau2
     BILAT_SPEECH_HOME                = /opt/api/cbi/capteur/bilat_speech
     BILAT_GPS_HOME                   = /opt/api/cbi/capteur/bilat_gps
     BILAT_PIPES_HOME                 = /opt/api/cbi/capteur/bilat_pipes

--------------------------------------------------------
[Runtime] : gcc arm : Ready!
--------------------------------------------------------


arm-linux-gnueabihf-g++-4.8 (Ubuntu/Linaro 4.8.4-2ubuntu1~14.04.1) 4.8.4
Copyright (C) 2013 Free Software Foundation, Inc.
This is free software; see the source for copying conditions.  There is NO
warranty; not even for MERCHANTABILITY or FITNESS FOR A PARTICULAR PURPOSE.


[Make] : GCC : jall

==================================================================================
[CBI] -> Target Name  : BilatTools_CPP_301_004_gcc_jetson_ARM_32
[CBI] ->
[CBI] -> Build     	  : /tmp/ramdrive/bilat/Targets/BilatTools_CPP_301_004/bin/libBilatTools_CPP_301_004_gcc_jetson_ARM_32.so
[CBI] -> Deploy       : ../RELEASE/bin
[CBI] ->
[CBI] -> Type	 	  : SHARED_LIB
[CBI] -> Arch	 	  : ARM_32
[CBI] -> OS	 		  : Linux
[CBI] -> User	 	  : bilat
[CBI] ->
[CBI] -> Task		  : Compiling-Linking
==================================================================================

[CBI] -> SRC AUX (Recursif) :
[CBI] ->

[CBI] -> CXXFLAGS (Partial) :
[CBI] ->
[CBI] ->              : -O3
[CBI] ->              : -fPIC
[CBI] ->              : -fopenmp
[CBI] ->              : -std=c++11

[CBI] -> LDFLAGS (Partial) :
[CBI] ->
[CBI] ->              : -shared

[CBI] -> INC_PATH (auto detect):
[CBI] ->              : src/core/tools/header/
[CBI] ->              : src/core/tools/header/namespace_cpu/

[CBI] -> LIB_PATH (auto detect):

[CBI] -> API_INC :

[CBI] -> API_BIN :

[CBI] -> API_LIBRARIES_STATIC :

[CBI] -> API_LIBRARIES :

[CBI] -> Create folder : /tmp/ramdrive/bilat/Targets/BilatTools_CPP_301_004/bin
[CBI] -> Create folder : /tmp/ramdrive/bilat/Targets/BilatTools_CPP_301_004/obj

[CBI] -> Compilation parallel (8 threads)

[BilatTools_CPP_301_004_gcc_jetson_ARM_32] -> g++ARM compiling .cpp : src/main.cpp
[BilatTools_CPP_301_004_gcc_jetson_ARM_32] -> g++ARM compiling .cpp : src/core/tools/cpp/AleaTools.cpp
[BilatTools_CPP_301_004_gcc_jetson_ARM_32] -> g++ARM compiling .cpp : src/core/tools/cpp/Chrono.cpp
[BilatTools_CPP_301_004_gcc_jetson_ARM_32] -> g++ARM compiling .cpp : src/core/tools/cpp/Fps.cpp
[BilatTools_CPP_301_004_gcc_jetson_ARM_32] -> g++ARM compiling .cpp : src/core/tools/cpp/LimitsTools.cpp
[BilatTools_CPP_301_004_gcc_jetson_ARM_32] -> g++ARM compiling .cpp : src/core/tools/cpp/MathTools.cpp
[BilatTools_CPP_301_004_gcc_jetson_ARM_32] -> g++ARM compiling .cpp : src/core/tools/cpp/Progress.cpp
[BilatTools_CPP_301_004_gcc_jetson_ARM_32] -> g++ARM compiling .cpp : src/core/tools/cpp/StringTools.cpp
[BilatTools_CPP_301_004_gcc_jetson_ARM_32] -> g++ARM compiling .cpp : src/core/tools/cpp/TabTools.cpp
[BilatTools_CPP_301_004_gcc_jetson_ARM_32] -> g++ARM compiling .cpp : src/core/tools/cpp/namespace_cpu/ColorTools_CPU.cpp
[BilatTools_CPP_301_004_gcc_jetson_ARM_32] -> g++ARM compiling .cpp : src/core/tools/cpp/namespace_cpu/IndiceTools_CPU.cpp

[BilatTools_CPP_301_004_gcc_jetson_ARM_32] -> Linking to   : /tmp/ramdrive/bilat/Targets/BilatTools_CPP_301_004/bin/libBilatTools_CPP_301_004_gcc_jetson_ARM_32.so

[BilatTools_CPP_301_004_gcc_jetson_ARM_32] -> Library Link :

[CBI] ->              : -lgomp


==================================================================================
[CBI] -> Target Name  : BilatTools_CPP_301_004_gcc_jetson_ARM_32
[CBI] -> Location     : /tmp/ramdrive/bilat/Targets/BilatTools_CPP_301_004/bin/libBilatTools_CPP_301_004_gcc_jetson_ARM_32.so
[CBI] -> Deploy 	  : ../RELEASE/bin
[CBI] ->
[CBI] -> Type	 	  : SHARED_LIB
[CBI] -> Arch	 	  : ARM_32
[CBI] -> OS	 		  : Linux
[CBI] -> User	 	  : bilat
[CBI] ->
[CBI] -> Compilateur  : g++ARM
[CBI] -> Task	      : End Compiling-Linking !
[CBI] -> Time		  : 1 (s)
==================================================================================


[CBI] -> Deploying    : ../RELEASE/bin/libBilatTools_CPP_301_004_gcc_jetson_ARM_32.so

[CBI] -> Symlink Project Inc
[CBI] -> To update code completion : ctrl-shift-s   or   gui/index/rebuild

[CBI] -> BilatTools_CPP_301_004_gcc_jetson_ARM_32 : End ALL!


17:11:09 Build Finished (took 984ms)

